<svg width="22" height="16" viewBox="0 0 22 16" fill="none" xmlns="http://www.w3.org/2000/svg">
<mask id="mask0" mask-type="alpha" maskUnits="userSpaceOnUse" x="0" y="0" width="22" height="16">
<rect width="22" height="16" fill="#C4C4C4"/>
</mask>
<g mask="url(#mask0)">
<path d="M11 8C13.21 8 15 6.21 15 4C15 1.79 13.21 0 11 0C8.79 0 7 1.79 7 4C7 6.21 8.79 8 11 8ZM11 10C8.33 10 3 11.34 3 14V16H19V14C19 11.34 13.67 10 11 10Z" fill="#F5821F"/>
</g>
</svg>
