<svg width="22" height="20" viewBox="0 0 22 20" fill="none" xmlns="http://www.w3.org/2000/svg">
<mask id="mask0" mask-type="alpha" maskUnits="userSpaceOnUse" x="0" y="0" width="22" height="20">
<rect width="22" height="20" fill="#C4C4C4"/>
</mask>
<g mask="url(#mask0)">
<path d="M13 0H5C3.9 0 3.01 0.9 3.01 2L3 18C3 19.1 3.89 20 4.99 20H17C18.1 20 19 19.1 19 18V6L13 0ZM15 14H12V17H10V14H7V12H10V9H12V12H15V14ZM12 7V1.5L17.5 7H12Z" fill="#F5821F"/>
</g>
</svg>
